0.3575
0.3575
0.3558
0.3523
0.3547
0.3555
0.3592
0.3629
0.3708
0.3814
0.4040
0.4187
0.4329
0.4466
0.4583
0.4568
0.4578
0.4627
0.4659
0.4637
0.4546
0.4488
0.4349
0.4099
0.3971
0.3980
0.3935
0.3982
0.3937
0.4002
0.4048
0.4101
0.4119
0.4109
0.4108
0.4143
0.4174
0.4183
0.4184
0.4156
0.4101
0.4125
0.4167
0.4161
0.4165
0.4173
0.4175
0.4176
0.4151
0.4148
0.4146
0.4143
0.4138
0.4064
0.4091
0.4121
0.4127
0.4110
0.4110
0.4049
0.4023
0.4056
0.4040
0.4066
0.4020
0.3966
0.3937
0.3949
0.3942
0.3871
0.3869
0.3830
0.3776
0.3716
0.3730
0.3757
0.3828
0.3833
0.3850
0.3832
0.3793
0.3768
0.3774
0.3774
0.3750
0.3761
0.3774
0.3732
0.3711
0.3738
0.3733
0.3756
0.3821
0.3855
0.3872
0.3920
0.4024
0.4164
0.4312
0.4389
0.4495
0.4503
0.4503
0.4540
0.4581
0.4621
0.4694
0.4773
0.4931
0.5101
0.5321
0.5412
0.5390
0.5379
0.5384
0.5379
0.5271
0.5279
0.5269
0.5289
0.5367
0.5399
0.5520
0.5555
0.5585
0.5577
0.5573
0.5531
0.5535
0.5463
0.5371
0.5358
0.5321
0.5195
0.5167
0.5052
0.4926
0.4834
0.4724
0.4724
0.4742
0.4798
0.4853
0.4975
0.5149
0.5293
0.5149
0.5094
0.5015
0.4992
0.4954
0.4961
0.5189
0.5452
0.5598
0.5871
0.6030
0.6319
0.6561
0.6771
0.6838
0.6823
0.6900
0.6721
0.6697
0.6654
0.6656
0.6642
0.6775
0.6855
0.6971
0.7173
0.7418
0.7542
0.7506
0.7450
0.7416
0.7392
0.7364
0.7368
0.7370
0.7352
0.7368
0.7348
0.7408
0.7425
0.7409
0.7440
0.7448
0.7659
0.7785
0.7840
0.7947
0.8061
0.8306
0.8350
0.8400
0.8391
0.8346
0.8239
0.8170
0.8145
0.8137
0.8074
0.8301
0.8304
0.8308
0.8298
0.8245
0.8159
0.8093
0.8087
0.7938
0.7891
0.7162
0.6497
0.5603
0.4962
0.4437
0.4099
0.5521
0.5578
0.6908
0.7229
0.7353
0.7443
0.7386
0.7224
0.6790
0.6873
0.6812
0.6839
0.6949
0.7102
0.6365
0.6880
0.5801
0.5073
0.6106
0.6924
0.7039
0.7203
0.7242
0.6480
0.5329
0.6532
0.6885
0.7075
0.7158
0.7305
0.7403
0.7586
0.7831
0.7988
0.8118
0.8171
0.7461
0.6698
0.5981
0.6951
0.6494
0.5829
0.7085
0.7244
0.7337
0.6766
0.7112
0.6630
0.5857
0.6782
0.6861
0.7112
0.6683
0.5839
0.6577
0.6891
0.7100
0.7263
0.7460
0.6543
0.5589
0.4887
0.5876
0.4216
0.6524
0.6773
0.6972
0.6974
0.6978
0.6850
0.6693
0.6627
0.6556
0.6550
0.6564
0.6425
0.6415
0.6146
0.6416
0.6604
0.6552
0.6678
0.6755
0.5497
0.3925
0.2719
0.1663
0.0819
0.0208
0.0487
0.0659
0.1527
0.1206
0.0951
0.0334
0.0503
0.0643
0.1317
0.1117
0.0351
0.0447
0.0602
0.0589
0.0570
0.0598
0.0621
0.0595
0.0542
0.0232
0.0338
0.0530
0.1025
0.1580
0.1569
0.1486
0.2424
0.2775
0.3343
0.3621
0.3568
0.4013
0.4323
0.4318
0.5090
0.5146
0.4893
0.4398
0.4182
0.4020
0.4329
0.4627
0.4863
0.4959
0.4790
0.4466
0.4072
0.3809
0.3487
0.3203
0.3022
0.2863
0.2749
0.2741
0.2698
0.2697
0.2711
0.2629
0.2351
0.2193
0.1902
0.1905
0.1739
0.1596
0.1404
0.1200
0.0960
0.0863
0.0807
0.0738
0.0739
0.0641
0.0593
0.0606
0.0631
0.0694
0.0759
0.0879
0.0940
0.1108
0.1255
0.1440
0.1641
0.1806
0.1919
0.2254
0.2666
0.3296
0.3370
0.3866
0.3970
0.4225
0.4380
0.4293
0.4309
0.4883
0.5645
0.5315
0.4605
0.4591
0.4380
0.4391
0.3795
0.3829
0.2610
0.1806
0.1830
0.0232
0.0222
0.0197
0.0257
0.0324
0.0350
0.0366
0.0368
0.0384
0.0429
0.0422
0.0435
0.0389
0.0402
0.0406
0.0437
0.0453
0.0463
0.0459
0.0453
0.0444
0.0440
0.0488
0.0464
0.0510
0.0453
0.0440
0.0449
0.0482
0.0510
0.0492
0.0458
0.0556
0.0568
0.0554
0.0603
0.0568
0.0552
0.0527
0.0486
0.0530
0.0508
0.0508
0.0512
0.0530
0.0517
0.0499
0.0517
0.0488
0.0472
0.0444
0.0476
0.0459
0.0432
0.0441
0.0455
0.0455
0.0428
0.0441
0.0444
0.0466
0.0483
0.0510
0.0501
0.0492
0.0492
0.0497
0.0483
0.0483
0.0492
0.0505
0.0507
0.0463
0.0463
0.0463
0.0446
0.0455
0.0437
0.0446
0.0446
0.0450
0.0453
0.0455
0.0437
0.0437
0.0446
0.0437
0.0437
0.0437
0.0437
0.0450
0.0455
0.0437
0.0459
0.0441
0.0463
0.0453
0.0467
0.0470
0.0470
0.0479
0.0479
0.0488
0.0479
0.0488
0.0479
0.0479
0.0479
0.0470
0.0488
0.0488
0.0479
0.0483
0.0492
0.0492
0.0483
0.0508
0.0508
0.0530
0.0530
0.0530
0.0527
0.0527
0.0499
0.0514
0.0497
0.0472
0.0455
0.0437
0.0433
0.0433
0.0428
0.0432
0.0441
0.0450
0.0444
0.0444
0.0453
0.0453
0.0463
0.0466
0.0466
0.0472
0.0453
0.0463
0.0453
0.0453
0.0463
0.0453
0.0459
0.0437
0.0446
0.0446
0.0446
0.0446
0.0446
0.0437
0.0446
0.0446
0.0437
0.0437
0.0434
0.0424
0.0434
0.0424
0.0428
0.0437
0.0455
0.0455
0.0437
0.0446
0.0465
0.0431
0.0453
0.0463
0.0453
0.0457
0.0466
0.0475
0.0457
0.0475
0.0466
0.0466
0.0463
0.0472
0.0438
0.0545
0.0508
0.0519
0.0475
0.0459
0.0441
0.0424
0.0420
0.0428
0.0428
0.0441
0.0450
0.0450
0.0434
0.0424
0.0424
0.0438
0.0438
0.0441
0.0441
0.0441
0.0444
0.0463
0.0453
0.0453
0.0463
0.0458
0.0461
0.0461
0.0470
0.0470
0.0492
0.0483
0.0505
0.0505
0.0499
0.0505
0.0492
0.0488
0.0470
0.0481
0.0417
0.0496
0.0523
0.0495
0.0510
0.0488
0.0475
0.0466
0.0475
0.0463
0.0463
0.0463
0.0463
0.0463
0.0463
0.0463
0.0466
0.0475
0.0466
0.0475
0.0479
0.0482
0.0495
0.0513
0.0508
0.0530
0.0530
0.0521
0.0524
0.0533
0.0541
0.0559
0.0575
0.0601
0.0605
0.0605
0.0601
0.0620
0.0575
0.0563
0.0546
0.0537
0.0533
0.0542
0.0552
0.0548
0.0530
0.0521
0.0517
0.0513
0.0517
0.0521
0.0521
0.0517
0.0512
0.0521
0.0528
0.0537
0.0546
0.0546
0.0546
0.0546
0.0550
0.0559
0.0550
0.0556
0.0542
0.0530
0.0539
0.0521
0.0521
0.0521
0.0521
0.0527
0.0513
0.0504
0.0492
0.0492
0.0482
0.0492
0.0492
0.0492
0.0492
0.0482
0.0479
0.0479
0.0482
0.0482
0.0501
0.0501
0.0479
0.0479
0.0479
0.0479
0.0479
0.0479
0.0479
0.0479
0.0479
0.0470
0.0467
0.0467
0.0467
0.0470
0.0467
0.0476
0.0467
0.0463
0.0463
0.0463
0.0466
0.0479
0.0488
0.0466
0.0475
0.0446
0.0513
0.0523
0.0482
0.0482
0.0482
0.0495
0.0504
0.0508
0.0502
0.0512
0.0512
0.0521
0.0530
0.0530
0.0527
0.0504
0.0504
0.0504
0.0495
0.0504
0.0504
0.0508
0.0512
0.0521
0.0524
0.0533
0.0546
0.0543
0.0534
0.0536
0.0510
0.0484
0.0453
0.0444
0.0463
0.0490
0.0446
0.0433
0.0424
0.0430
0.0417
0.0408
0.0417
0.0411
0.0420
0.0420
0.0437
0.0433
0.0433
0.0433
0.0433
0.0433
0.0437
0.0441
0.0443
0.0443
0.0424
0.0412
0.0408
0.0417
0.0408
0.0411
0.0417
0.0404
0.0395
0.0400
0.0397
0.0385
0.0346
0.0315
0.0317
0.0276
0.0276
0.0282
0.0285
0.0224
0.0291
0.0278
0.0257
0.0240
0.0228
0.0266
0.0224
0.0230
0.0205
0.0224
0.0151
0.0154
0.0198
0.0173
0.0151
0.0128
0.0095
0.0156
0.0116
0.0130
0.0113
0.0183
0.0184
0.0186
0.0184
0.0169
0.0148
0.0147
0.0148
0.0141
0.0163
0.0165
0.0172
0.0174
0.0173
0.0176
0.0172
0.0174
0.0158
0.0156
0.0182
0.0174
0.0172
0.0166
0.0167
0.0154
0.0159
0.0182
0.0193
0.0185
0.0165
0.0167
0.0167
0.0170
0.0171
0.0180
0.0169
0.0179
0.0178
0.0157
0.0155
0.0147
0.0182
0.0178
0.0183
0.0199
0.0208
0.0202
0.0150
0.0150
0.0146
0.0156
0.0164
0.0153
0.0170
0.0136
0.0137
0.0178
0.0166
0.0170
0.0189
0.0183
0.0183
0.0184
0.0189
0.0177
0.0181
0.0184
0.0169
0.0182
0.0145
0.0151
0.0183
0.0170
0.0180
0.0200
0.0201
0.0190
0.0149
0.0148
0.0189
0.0177
0.0174
0.0184
0.0182
0.0142
0.0150
0.0178
0.0188
0.0187
0.0151
0.0163
0.0153
0.0150
0.0149
0.0174
0.0184
0.0181
0.0183
0.0169
0.0173
0.0182
0.0178
0.0167
0.0171
0.0200
0.0196
