3.8780E+000
4.6000E-001
3.8800E-001
4.4200E-001
3.5800E-001
6.3400E-001
6.0300E-001
4.9000E-001
5.5600E-001
5.0600E-001
3.7000E-001
5.4800E-001
3.9400E-001
4.1700E-001
7.2700E-001
4.9300E-001
4.8100E-001
7.1100E-001
4.4000E-001
5.8500E-001
4.8200E-001
4.8800E-001
4.0700E-001
5.2300E-001
5.7200E-001
4.6000E-001
6.7700E-001
4.2500E-001
7.6600E-001
6.9400E-001
5.3300E-001
4.8100E-001
6.5300E-001
8.5900E-001
7.4900E-001
7.6100E-001
5.2700E-001
6.3400E-001
4.5100E-001
6.6800E-001
5.0800E-001
6.3100E-001
5.7400E-001
5.0000E-001
5.0300E-001
6.4100E-001
5.2800E-001
6.2200E-001
4.5400E-001
7.1900E-001
4.8000E-001
6.2200E-001
7.3200E-001
5.8300E-001
4.4800E-001
6.2200E-001
5.0400E-001
6.6600E-001
6.3600E-001
5.9500E-001
3.8600E-001
5.2800E-001
6.7600E-001
4.9600E-001
6.9700E-001
8.2300E-001
4.8500E-001
4.3400E-001
3.8900E-001
6.6900E-001
6.0700E-001
6.7300E-001
4.7500E-001
5.6900E-001
7.9000E-001
7.4500E-001
9.4800E-001
8.7500E-001
3.6700E-001
6.2900E-001
6.6800E-001
6.2000E-001
5.1200E-001
4.2900E-001
5.7300E-001
5.3500E-001
4.7200E-001
7.0400E-001
9.1300E-001
4.5700E-001
5.7000E-001
7.2500E-001
5.9900E-001
4.7200E-001
5.2400E-001
7.1100E-001
4.2200E-001
7.7200E-001
4.0100E-001
5.8200E-001
4.1700E-001
6.5400E-001
6.5500E-001
4.5000E-001
4.1000E-001
6.9200E-001
6.4700E-001
3.8700E-001
6.6500E-001
6.0400E-001
7.1900E-001
4.9100E-001
6.1500E-001
6.3700E-001
6.8700E-001
5.4500E-001
4.5400E-001
4.8500E-001
6.7600E-001
5.9200E-001
4.7600E-001
3.2800E-001
5.6400E-001
4.8100E-001
7.4200E-001
7.9600E-001
6.5300E-001
5.2800E-001
4.1300E-001
5.9600E-001
7.8300E-001
5.8800E-001
4.0000E-001
6.0200E-001
4.4800E-001
6.5000E-001
6.2000E-001
7.3900E-001
5.9600E-001
3.4800E-001
4.7000E-001
7.2700E-001
6.8700E-001
7.2100E-001
5.6300E-001
5.4000E-001
5.4100E-001
6.1300E-001
5.0000E-001
5.6000E-001
5.7500E-001
6.0600E-001
6.2100E-001
6.8600E-001
6.5100E-001
7.1300E-001
5.8200E-001
3.6600E-001
4.9100E-001
6.0800E-001
5.6300E-001
6.8400E-001
4.9800E-001
6.9200E-001
4.1700E-001
5.2900E-001
4.9600E-001
5.0100E-001
6.3900E-001
6.0700E-001
6.7400E-001
3.3400E-001
6.5600E-001
5.5600E-001
4.3700E-001
4.0600E-001
7.1800E-001
3.2000E-001
5.3400E-001
6.6900E-001
5.2700E-001
6.7600E-001
7.9400E-001
6.4800E-001
7.3000E-001
6.7200E-001
6.9000E-001
4.0300E-001
3.8900E-001
6.9700E-001
8.4800E-001
9.4000E-001
4.4100E-001
6.5200E-001
4.9600E-001
5.5400E-001
6.7700E-001
6.9800E-001
4.7100E-001
7.2700E-001
5.0700E-001
6.4100E-001
7.7000E-001
5.1900E-001
7.8200E-001
5.4200E-001
5.9900E-001
7.7900E-001
4.6600E-001
7.5600E-001
4.8200E-001
6.9800E-001
5.8500E-001
5.1100E-001
4.9100E-001
5.8300E-001
4.1100E-001
6.4200E-001
6.1200E-001
4.3600E-001
9.0000E-001
5.8800E-001
5.9000E-001
5.0700E-001
5.0200E-001
6.9700E-001
5.4600E-001
7.4600E-001
4.5000E-001
7.0900E-001
4.6800E-001
6.2700E-001
7.0400E-001
4.8000E-001
7.5100E-001
5.9100E-001
8.6600E-001
5.7300E-001
6.7600E-001
8.4500E-001
6.5200E-001
3.5700E-001
4.8100E-001
8.2400E-001
7.9500E-001
7.6000E-001
5.9000E-001
7.8400E-001
7.0800E-001
8.9200E-001
5.2800E-001
5.0600E-001
3.9700E-001
4.0700E-001
7.8300E-001
5.2300E-001
5.8500E-001
8.5900E-001
7.9600E-001
3.1100E-001
6.2900E-001
7.5600E-001
7.6300E-001
6.4600E-001
4.7800E-001
5.7400E-001
7.3200E-001
4.5600E-001
4.5700E-001
4.7600E-001
4.8100E-001
6.4100E-001
5.2000E-001
5.2500E-001
7.6800E-001
4.6200E-001
4.5500E-001
7.0100E-001
6.8700E-001
7.3000E-001
7.0200E-001
8.5000E-001
6.3500E-001
4.7400E-001
7.0200E-001
5.6900E-001
7.3100E-001
6.7200E-001
7.6100E-001
6.6500E-001
7.7100E-001
4.3100E-001
4.1900E-001
6.8600E-001
5.6100E-001
5.3200E-001
6.3300E-001
6.9800E-001
5.7600E-001
4.9200E-001
6.1000E-001
4.5700E-001
5.5100E-001
3.7600E-001
5.2600E-001
7.3300E-001
6.8300E-001
7.7200E-001
5.3200E-001
6.8000E-001
6.0500E-001
8.2700E-001
5.4300E-001
3.3100E-001
4.1800E-001
4.9200E-001
8.2200E-001
6.3700E-001
5.3800E-001
5.4400E-001
6.2600E-001
7.5200E-001
5.0700E-001
6.6400E-001
6.3000E-001
5.6100E-001
5.5600E-001
6.2500E-001
5.7800E-001
6.6900E-001
5.1000E-001
4.0800E-001
5.5200E-001
5.9900E-001
7.9000E-001
8.8800E-001
4.1500E-001
3.0600E-001
5.4000E-001
6.0100E-001
6.2700E-001
5.3400E-001
5.1600E-001
4.7400E-001
8.1500E-001
6.0500E-001
6.2700E-001
6.3400E-001
5.6000E-001
3.1500E-001
4.7000E-001
5.9100E-001
4.3400E-001
7.8900E-001
5.9000E-001
4.7600E-001
5.3600E-001
9.7800E-001
8.7000E-001
6.9500E-001
4.3800E-001
5.0400E-001
7.0600E-001
4.4700E-001
6.1600E-001
4.2900E-001
5.8800E-001
5.4800E-001
6.3900E-001
6.5300E-001
4.5500E-001
4.1900E-001
5.8300E-001
4.4400E-001
4.9500E-001
6.2600E-001
4.0400E-001
5.0700E-001
4.9200E-001
4.5600E-001
6.9400E-001
5.3000E-001
8.5600E-001
5.9500E-001
4.3700E-001
7.2300E-001
6.8400E-001
6.4400E-001
6.2300E-001
3.7000E-001
3.5600E-001
3.5700E-001
5.4800E-001
6.8100E-001
7.2800E-001
5.4000E-001
4.5100E-001
3.8900E-001
6.2100E-001
6.7300E-001
7.7300E-001
4.6700E-001
6.1600E-001
4.0100E-001
4.5300E-001
6.0700E-001
9.4500E-001
4.7500E-001
4.4000E-001
3.9900E-001
3.4700E-001
7.1000E-001
7.3100E-001
4.3200E-001
4.9200E-001
4.8400E-001
5.1000E-001
6.2200E-001
8.5600E-001
3.8100E-001
4.9800E-001
5.3700E-001
7.0200E-001
6.5300E-001
7.3300E-001
4.4800E-001
6.0900E-001
5.1500E-001
4.1800E-001
4.7500E-001
7.4900E-001
4.1800E-001
4.5300E-001
5.2000E-001
4.5300E-001
5.6300E-001
4.6400E-001
5.2600E-001
4.4100E-001
3.1000E-001
6.6300E-001
5.6400E-001
7.9500E-001
4.7200E-001
3.2900E-001
4.2200E-001
3.6900E-001
7.1900E-001
7.9400E-001
6.0500E-001
4.4500E-001
4.2800E-001
6.7600E-001
8.5800E-001
7.6300E-001
4.6100E-001
6.2400E-001
5.8400E-001
3.7400E-001
4.8600E-001
4.5500E-001
6.4400E-001
4.7900E-001
3.1800E-001
7.7700E-001
4.0300E-001
6.7200E-001
5.3700E-001
4.8000E-001
4.9300E-001
7.9500E-001
9.0200E-001
5.6900E-001
3.1900E-001
6.8800E-001
4.4900E-001
5.6100E-001
5.1900E-001
6.2500E-001
4.2500E-001
7.0000E-001
7.3300E-001
4.3800E-001
6.9700E-001
6.8000E-001
5.5800E-001
5.3400E-001
4.2600E-001
4.8400E-001
3.7900E-001
8.1500E-001
3.6500E-001
4.9300E-001
7.7900E-001
4.1700E-001
7.2200E-001
6.9200E-001
4.4800E-001
5.0300E-001
6.8100E-001
4.6900E-001
5.9800E-001
5.0900E-001
4.7600E-001
5.4200E-001
4.7300E-001
5.2500E-001
6.5800E-001
7.0500E-001
6.3100E-001
5.4400E-001
5.5900E-001
4.6500E-001
5.2500E-001
5.8500E-001
3.2300E-001
6.0300E-001
4.3200E-001
4.5000E-001
6.4800E-001
5.8200E-001
4.0700E-001
5.4300E-001
4.6200E-001
4.9200E-001
6.3500E-001
5.5000E-001
4.0100E-001
6.1600E-001
6.7600E-001
4.3000E-001
5.2100E-001
4.8400E-001
3.6900E-001
6.3000E-001
4.5900E-001
6.1300E-001
3.8800E-001
7.4900E-001
5.3900E-001
6.9000E-001
5.8700E-001
3.6000E-001
4.2200E-001
6.9600E-001
4.1100E-001
3.5600E-001
3.7300E-001
6.0300E-001
5.9200E-001
4.4200E-001
5.7000E-001
4.2200E-001
6.4800E-001
6.9100E-001
4.7100E-001
6.5100E-001
5.9700E-001
6.5100E-001
4.0500E-001
6.7800E-001
4.3200E-001
5.2700E-001
3.7600E-001
4.6600E-001
4.3300E-001
5.5800E-001
6.4000E-001
5.6000E-001
4.2000E-001
5.4300E-001
6.3000E-001
4.2400E-001
6.6800E-001
6.3300E-001
4.0700E-001
5.9700E-001
7.4400E-001
4.2700E-001
5.7100E-001
5.5600E-001
6.7700E-001
4.9600E-001
7.0300E-001
3.4700E-001
6.6000E-001
6.1700E-001
4.3600E-001
3.8400E-001
5.5000E-001
5.5900E-001
4.9000E-001
6.6600E-001
5.0200E-001
7.1300E-001
4.6400E-001
5.9900E-001
7.3100E-001
6.7800E-001
3.0800E-001
6.9300E-001
4.5100E-001
4.0100E-001
3.7900E-001
4.8100E-001
5.5200E-001
4.9800E-001
5.7200E-001
5.6900E-001
5.6100E-001
8.4000E-001
5.1000E-001
5.1100E-001
5.7600E-001
4.1600E-001
6.4000E-001
5.8300E-001
4.5200E-001
6.6100E-001
4.8100E-001
4.8200E-001
6.7500E-001
8.7500E-001
5.2200E-001
4.5400E-001
3.5400E-001
6.2300E-001
6.8700E-001
7.5900E-001
4.3500E-001
4.0800E-001
5.0800E-001
3.9800E-001
5.9400E-001
4.9000E-001
3.9100E-001
5.3100E-001
6.6200E-001
5.1900E-001
4.5800E-001
4.1500E-001
3.8400E-001
3.5500E-001
4.4500E-001
3.8000E-001
3.7500E-001
5.0800E-001
3.7700E-001
4.5200E-001
5.9200E-001
6.9600E-001
5.9200E-001
4.9000E-001
6.0500E-001
5.3800E-001
7.0700E-001
3.9600E-001
5.4300E-001
4.1500E-001
3.7900E-001
4.5400E-001
4.8400E-001
7.3700E-001
5.9500E-001
6.7900E-001
3.8400E-001
4.9600E-001
6.1000E-001
5.4700E-001
5.4100E-001
5.1500E-001
4.5500E-001
4.7300E-001
5.5900E-001
6.6900E-001
6.4900E-001
4.8700E-001
4.3300E-001
4.9400E-001
6.2100E-001
4.3600E-001
4.7300E-001
3.2900E-001
5.9000E-001
4.0000E-001
6.3000E-001
4.6500E-001
5.9200E-001
6.8700E-001
4.5600E-001
3.6500E-001
4.7500E-001
5.5500E-001
5.3100E-001
5.4500E-001
5.5900E-001
6.3800E-001
7.4500E-001
6.5300E-001
4.4800E-001
7.5800E-001
6.3400E-001
7.0200E-001
4.4800E-001
4.6800E-001
7.6600E-001
3.4500E-001
5.5500E-001
5.1100E-001
6.2800E-001
7.0300E-001
4.7400E-001
7.0100E-001
5.4700E-001
5.7800E-001
4.3100E-001
5.1400E-001
6.3700E-001
6.5600E-001
5.7300E-001
6.1300E-001
6.8500E-001
4.7200E-001
6.0700E-001
6.3700E-001
5.6800E-001
5.1200E-001
5.0000E-001
7.1500E-001
3.3900E-001
6.1100E-001
4.0700E-001
6.4000E-001
6.2900E-001
4.7800E-001
5.4700E-001
3.1800E-001
3.9800E-001
4.5400E-001
4.2400E-001
6.0700E-001
4.6200E-001
4.3100E-001
7.3000E-001
4.8900E-001
6.5700E-001
5.9400E-001
4.9000E-001
5.0900E-001
4.6100E-001
6.1600E-001
5.5400E-001
5.0400E-001
6.9800E-001
4.9800E-001
5.3900E-001
3.8200E-001
4.7600E-001
7.3200E-001
5.0400E-001
5.3900E-001
4.5100E-001
4.8400E-001
4.2200E-001
5.7700E-001
6.3900E-001
7.3000E-001
6.1200E-001
6.4000E-001
6.5800E-001
5.1100E-001
4.4000E-001
7.4400E-001
5.6600E-001
7.7200E-001
4.1600E-001
6.8400E-001
5.7900E-001
7.0600E-001
4.5100E-001
5.4300E-001
6.8900E-001
5.9300E-001
5.6200E-001
5.9900E-001
5.5600E-001
4.7900E-001
6.6000E-001
6.0600E-001
6.1100E-001
6.4100E-001
7.1800E-001
5.8400E-001
5.9800E-001
4.9000E-001
4.6900E-001
6.3800E-001
4.3200E-001
5.8900E-001
8.3100E-001
4.6600E-001
5.8200E-001
6.0800E-001
5.7100E-001
7.2700E-001
6.1700E-001
7.7800E-001
9.4000E-001
7.2100E-001
4.8900E-001
5.6200E-001
8.0200E-001
6.1800E-001
7.6400E-001
6.2000E-001
6.4400E-001
5.1700E-001
4.9400E-001
6.8400E-001
7.8200E-001
8.3900E-001
4.0300E-001
5.3000E-001
5.0200E-001
1.9130E+000
5.5700E-001
7.3900E-001
4.1500E-001
5.7500E-001
5.2700E-001
6.5600E-001
6.3900E-001
5.3700E-001
5.2700E-001
4.6200E-001
5.7600E-001
5.6600E-001
6.5400E-001
7.8500E-001
5.8200E-001
4.3800E-001
5.7800E-001
3.7600E-001
4.0800E-001
6.8800E-001
5.6200E-001
4.6200E-001
4.9300E-001
6.3000E-001
5.1700E-001
6.5300E-001
6.4400E-001
6.6200E-001
6.9600E-001
6.1700E-001
6.2300E-001
5.4600E-001
4.8500E-001
5.0100E-001
6.4400E-001
5.5600E-001
5.2400E-001
4.6500E-001
6.0300E-001
7.9400E-001
7.8700E-001
4.4800E-001
6.1400E-001
4.1700E-001
6.8800E-001
5.4300E-001
4.9200E-001
8.4000E-001
6.8200E-001
6.5300E-001
5.4700E-001
6.6300E-001
5.1500E-001
5.1700E-001
5.2700E-001
5.5100E-001
4.9200E-001
8.0900E-001
7.1100E-001
7.9500E-001
5.5400E-001
5.1200E-001
5.8100E-001
7.4900E-001
4.2800E-001
4.8900E-001
5.1800E-001
5.3200E-001
7.6200E-001
3.9400E-001
5.2400E-001
7.0300E-001
5.9600E-001
5.5200E-001
5.5800E-001
4.8500E-001
7.5600E-001
3.8100E-001
7.2400E-001
5.7800E-001
5.7200E-001
7.3000E-001
8.0200E-001
5.0400E-001
8.4000E-001
7.5100E-001
5.6500E-001
3.9400E-001
4.2000E-001
7.8400E-001
4.9200E-001
4.5400E-001
3.6800E-001
5.7200E-001
6.4600E-001
6.5700E-001
7.2200E-001
5.0500E-001
3.6000E-001
3.7400E-001
6.7800E-001
4.2700E-001
7.0600E-001
5.5200E-001
5.6400E-001
5.7600E-001
4.0900E-001
5.9600E-001
8.3000E-001
4.3600E-001
5.6700E-001
4.8300E-001
6.4500E-001
6.2200E-001
7.1300E-001
5.1700E-001
4.9400E-001
5.5000E-001
5.7900E-001
4.8500E-001
7.3000E-001
4.5400E-001
6.7500E-001
6.7700E-001
6.6000E-001
4.6100E-001
5.0600E-001
6.1800E-001
6.5600E-001
4.8000E-001
4.7800E-001
5.4600E-001
6.1800E-001
4.7300E-001
5.2300E-001
6.6400E-001
6.0300E-001
5.9600E-001
7.4200E-001
4.0100E-001
3.9700E-001
6.0900E-001
5.5900E-001
6.2200E-001
4.5500E-001
5.1600E-001
5.6800E-001
5.3900E-001
3.9300E-001
5.9000E-001
5.4600E-001
5.9900E-001
3.7100E-001
3.7300E-001
4.7100E-001
6.5300E-001
4.4000E-001
5.2900E-001
5.4900E-001
8.3000E-001
5.1500E-001
6.1400E-001
8.9500E-001
4.9000E-001
6.3700E-001
6.7000E-001
5.4200E-001
8.5400E-001
7.1100E-001
3.2000E-001
7.4300E-001
4.4300E-001
6.6100E-001
5.0500E-001
4.8300E-001
